fpga/radiant_project/lab3_wc/debouncer_tb.vcd
$date
	Mon Sep 22 17:49:55 2025
$end
$version
	Questa Lattice OEM Edition 2024.2
$end
$timescale
	1ps
$end

$scope module debouncer_tb $end
$var reg 1 ! clk $end
$var reg 1 " reset $end
$var reg 4 # sig_in [3:0] $end
$var reg 1 $ key_pressed $end
$var reg 4 % sig_out [3:0] $end

$scope module dut $end
$var wire 1 & clk $end
$var wire 1 ' reset $end
$var wire 1 ( sig_in [3] $end
$var wire 1 ) sig_in [2] $end
$var wire 1 * sig_in [1] $end
$var wire 1 + sig_in [0] $end
$var wire 1 , key_pressed $end
$var reg 4 - sig_out [3:0] $end
$var reg 4 . state [3:0] $end
$var reg 4 / nextstate [3:0] $end
$var reg 20 0 counter [19:0] $end
$var reg 1 1 counter_done $end
$upscope $end
$upscope $end
$enddefinitions $end
#0
$dumpvars
0!
1"
b0 #
0$
bx %
bx -
bx .
b0 /
bx 0
x1
0,
0+
0*
0)
0(
1'
0&
$end
#5000
1!
1&
0"
b1010 #
1$
0'
1*
1(
1,
b0 .
b0 0
b1111 -
b1111 %
01
b1 /
#10000
0!
0&
#15000
1!
1&
b1 .
#20000
0!
0&
#25000
1!
1&
b1 0
#30000
0!
0&
#35000
1!
1&
b10 0
#40000
0!
0&
#45000
1!
1&
b11 0
#50000
0!
0&
#55000
1!
1&
b100 0
#60000
0!
0&
#65000
1!
1&
b101 0
#70000
0!
0&
#75000
1!
1&
b110 0
#80000
0!
0&
#85000
1!
1&
b111 0
#90000
0!
0&
#95000
1!
1&
b1000 0
#100000
0!
0&
#105000
1!
1&
b1001 0
#110000
0!
0&
#115000
1!
1&
b1010 0
#120000
0!
0&
#125000
1!
1&
b1011 0
#130000
0!
0&
#135000
1!
1&
b1100 0
#140000
0!
0&
#145000
1!
1&
b1101 0
#150000
0!
0&
#155000
1!
1&
b1110 0
#160000
0!
0&
#165000
1!
1&
b1111 0
#170000
0!
0&
#175000
1!
1&
b10000 0
#180000
0!
0&
#185000
1!
1&
b10001 0
#190000
0!
0&
#195000
1!
1&
b10010 0
#200000
0!
0&
#205000
1!
1&
b10011 0
#210000
0!
0&
#215000
1!
1&
b10100 0
11
b10 /
#220000
0!
0&
#225000
1!
1&
b10 .
b0 0
b1010 -
b1010 %
01
#230000
0!
0&
#235000
1!
1&
#240000
0!
0&
#245000
1!
1&
#250000
0!
0&
#255000
1!
1&
#260000
0!
0&
#265000
1!
1&
#270000
0!
0&
#275000
1!
1&
#280000
0!
0&
#285000
1!
1&
#290000
0!
0&
#295000
1!
1&
#300000
0!
0&
#305000
1!
1&
#310000
0!
0&
#315000
1!
1&
#320000
0!
0&
#325000
1!
1&
#330000
0!
0&
#335000
1!
1&
#340000
0!
0&
#345000
1!
1&
#350000
0!
0&
#355000
1!
1&
#360000
0!
0&
#365000
1!
1&
#370000
0!
0&
#375000
1!
1&
#380000
0!
0&
#385000
1!
1&
#390000
0!
0&
#395000
1!
1&
#400000
0!
0&
#405000
1!
1&
0$
0,
b11 /
#410000
0!
0&
#415000
1!
1&
b11 .
b1 /
#420000
0!
0&
#425000
1!
1&
b1 .
b1 0
#430000
0!
0&
#435000
1!
1&
b10 0
#440000
0!
0&
#445000
1!
1&
b11 0
#450000
0!
0&
#455000
1!
1&
b100 0
#460000
0!
0&
#465000
1!
1&
b101 0
#470000
0!
0&
#475000
1!
1&
b110 0
#480000
0!
0&
#485000
1!
1&
b111 0
#490000
0!
0&
#495000
1!
1&
b1000 0
#500000
0!
0&
#505000
1!
1&
b1001 0
#510000
0!
0&
#515000
1!
1&
b1010 0
#520000
0!
0&
#525000
1!
1&
b1011 0
#530000
0!
0&
#535000
1!
1&
b1100 0
#540000
0!
0&
#545000
1!
1&
b1101 0
#550000
0!
0&
#555000
1!
1&
b1110 0
#560000
0!
0&
#565000
1!
1&
b1111 0
#570000
0!
0&
#575000
1!
1&
b10000 0
#580000
0!
0&
#585000
1!
1&
b10001 0
#590000
0!
0&
#595000
1!
1&
b10010 0
#600000
0!
0&
#605000
1!
1&
b10011 0
#610000
0!
0&
#615000
1!
1&
b10100 0
11
b0 /
#620000
0!
0&
#625000
1!
1&
b0 .
b0 0
01
#630000
0!
0&
#635000
1!
1&
#640000
0!
0&
#645000
1!
1&
#650000
0!
0&
#655000
1!
1&
#660000
0!
0&
#665000
1!
1&
#670000
0!
0&
#675000
1!
1&
#680000
0!
0&
#685000
1!
1&
#690000
0!
0&
#695000
1!
1&
#700000
0!
0&
#705000
1!
1&
#710000
0!
0&
#715000
1!
1&
#720000
0!
0&
#725000
1!
1&
#730000
0!
0&
#735000
1!
1&
#740000
0!
0&
#745000
1!
1&
#750000
0!
0&
#755000
1!
1&
#760000
0!
0&
#765000
1!
1&
#770000
0!
0&
#775000
1!
1&
#780000
0!
0&
#785000
1!
1&
#790000
0!
0&
#795000
1!
1&
#800000
0!
0&
#805000
1!
1&
b101 #
1$
1+
0*
1)
0(
1,
b1 /
#810000
0!
0&
#815000
1!
1&
0$
b0 #
0+
0)
0,
b0 /
b1 .
b1 /
#820000
0!
0&
#825000
1!
1&
1$
b101 #
1+
1)
1,
b1 0
#830000
0!
0&
#835000
1!
1&
0$
b0 #
0+
0)
0,
b10 0
#840000
0!
0&
#845000
1!
1&
1$
b101 #
1+
1)
1,
b11 0
#850000
0!
0&
#855000
1!
1&
b100 0
#860000
0!
0&
#865000
1!
1&
b101 0
#870000
0!
0&
#875000
1!
1&
b110 0
#880000
0!
0&
#885000
1!
1&
b111 0
#890000
0!
0&
#895000
1!
1&
b1000 0
#900000
0!
0&
#905000
1!
1&
b1001 0
#910000
0!
0&
#915000
1!
1&
b1010 0
#920000
0!
0&
#925000
1!
1&
b1011 0
#930000
0!
0&
#935000
1!
1&
b1100 0
#940000
0!
0&
#945000
1!
1&
b1101 0
#950000
0!
0&
#955000
1!
1&
b1110 0
#960000
0!
0&
#965000
1!
1&
b1111 0
#970000
0!
0&
#975000
1!
1&
b10000 0
#980000
0!
0&
#985000
1!
1&
b10001 0
#990000
0!
0&
#995000
1!
1&
b10010 0
#1000000
0!
0&
#1005000
1!
1&
b10011 0
#1010000
0!
0&
#1015000
1!
1&
b10100 0
11
b10 /
#1020000
0!
0&
#1025000
1!
1&
b10 .
b0 0
b101 -
b101 %
01
