fpga/radiant_project/lab3_wc/scanner_tb.vcd
$date
	Mon Sep 22 17:53:26 2025
$end
$version
	Questa Lattice OEM Edition 2024.2
$end
$timescale
	1ps
$end

$scope module scanner_tb $end
$var reg 1 ! clk $end
$var reg 1 " reset $end
$var reg 4 # columns [3:0] $end
$var reg 4 $ rows [3:0] $end
$var reg 4 % debounced_col [3:0] $end
$var reg 1 & enable $end

$scope task test_reset $end
$upscope $end

$scope task test_no_key_pressed $end
$upscope $end

$scope task test_single_key_press $end
$var reg 4 ' row_mask [3:0] $end
$var reg 4 ( col_mask [3:0] $end
$var reg 4 ) expected_col [3:0] $end
$upscope $end

$scope task test_multiple_keys_same_row $end
$upscope $end

$scope task test_rapid_key_presses $end
$upscope $end

$scope module dut $end
$var wire 1 * clk $end
$var wire 1 + reset $end
$var wire 1 , columns [3] $end
$var wire 1 - columns [2] $end
$var wire 1 . columns [1] $end
$var wire 1 / columns [0] $end
$var reg 4 0 rows [3:0] $end
$var reg 4 1 debounced_col [3:0] $end
$var reg 1 2 enable $end
$var reg 8 3 state [7:0] $end
$var reg 8 4 nextstate [7:0] $end
$var reg 1 5 key_pressed $end
$var reg 1 6 key_pressed_debounced $end
$var reg 4 7 debounced_value [3:0] $end

$scope module debounceFSM $end
$var wire 1 * clk $end
$var wire 1 + reset $end
$var wire 1 , sig_in [3] $end
$var wire 1 - sig_in [2] $end
$var wire 1 . sig_in [1] $end
$var wire 1 / sig_in [0] $end
$var wire 1 8 key_pressed $end
$var reg 4 9 sig_out [3:0] $end
$var reg 4 : state [3:0] $end
$var reg 4 ; nextstate [3:0] $end
$var reg 20 < counter [19:0] $end
$var reg 1 = counter_done $end
$upscope $end
$upscope $end
$upscope $end
$enddefinitions $end
#0
$dumpvars
0!
1"
b1111 #
bx $
bx %
x&
bx 0
bx 1
x2
bx 3
b0 4
05
x6
bx 7
bx 9
bx :
b0 ;
bx <
x=
bx '
bx (
bx )
1/
1.
1-
1,
1+
0*
x8
$end
#5000
1!
1*
b0 3
b0 :
b0 <
b1111 9
b1111 7
b1xxx 0
b1x0x 0
06
b100x 0
02
b1000 0
0&
b1000 $
b1111 1
b1111 %
0=
08
b11 4
#10000
0!
0*
#15000
1!
1*
#20000
0!
0*
#25000
1!
1*
#30000
0"
0!
0+
0*
#35000
1!
1*
b11 3
b0 0
b100 0
b100 $
b110 4
#40000
0!
0*
#45000
1!
1*
b110 3
b110 0
b10 0
b10 $
b1001 4
#50000
0!
0*
#55000
1!
1*
b1001 3
b11 0
b1 0
b1 $
b0 4
#60000
0!
0*
#65000
1!
1*
b0 3
b1001 0
b1000 0
b1000 $
b11 4
#70000
0!
0*
#75000
1!
1*
b11 3
b0 0
b100 0
b100 $
b110 4
#80000
0!
0*
#85000
1!
1*
b110 3
b110 0
b10 0
b10 $
b1001 4
#90000
0!
0*
#95000
1!
1*
b1001 3
b11 0
b1 0
b1 $
b0 4
#100000
0!
0*
#105000
1!
1*
b0 3
b1001 0
b1000 0
b1000 $
b11 4
#110000
0!
0*
#115000
1!
1*
b11 3
b0 0
b100 0
b100 $
b110 4
#120000
0!
0*
#125000
1!
1*
b110 3
b110 0
b10 0
b10 $
b1001 4
#130000
0!
0*
#135000
1!
1*
b1001 3
b11 0
b1 0
b1 $
b0 4
#140000
0!
0*
#145000
1!
1*
b0 3
b1001 0
b1000 0
b1000 $
b11 4
#150000
0!
0*
#155000
1!
1*
b11 3
b0 0
b100 0
b100 $
b110 4
#160000
0!
0*
#165000
1!
1*
b110 3
b110 0
b10 0
b10 $
b1001 4
#170000
0!
0*
#175000
1!
1*
b1001 3
b11 0
b1 0
b1 $
b0 4
#180000
0!
0*
#185000
1!
1*
b0 3
b1001 0
b1000 0
b1000 $
b11 4
#190000
0!
0*
#195000
1!
1*
b11 3
b0 0
b100 0
b100 $
b110 4
#200000
0!
0*
#205000
1!
1*
b110 3
b110 0
b10 0
b10 $
b1001 4
#210000
0!
0*
#215000
1!
1*
b1001 3
b11 0
b1 0
b1 $
b0 4
#220000
0!
0*
#225000
1!
1*
b0 3
b1001 0
b1000 0
b1000 $
b11 4
#230000
0!
0*
#235000
1!
1*
b11 3
b0 0
b100 0
b100 $
b110 4
#240000
0!
0*
#245000
1!
1*
b110 3
b110 0
b10 0
b10 $
b1001 4
#250000
0!
0*
#255000
1!
1*
b1001 3
b11 0
b1 0
b1 $
b0 4
#260000
0!
0*
#265000
1!
1*
b0 3
b1001 0
b1000 0
b1000 $
b11 4
#270000
0!
0*
#275000
1!
1*
b11 3
b0 0
b100 0
b100 $
b110 4
#280000
0!
0*
#285000
1!
1*
b110 3
b110 0
b10 0
b10 $
b1001 4
#290000
0!
0*
#295000
1!
1*
b1001 3
b11 0
b1 0
b1 $
b0 4
#300000
0!
0*
#305000
1!
1*
b0 3
b1001 0
b1000 0
b1000 $
b11 4
#310000
0!
0*
#315000
1!
1*
b11 3
b0 0
b100 0
b100 $
b110 4
#320000
0!
0*
#325000
1!
1*
b110 3
b110 0
b10 0
b10 $
b1001 4
#330000
0!
0*
#335000
1!
1*
b1001 3
b11 0
b1 0
b1 $
b0 4
#340000
b1000 '
b111 (
b111 )
0!
0*
#345000
1!
1*
b0 3
b1001 0
b1000 0
b1000 $
b111 #
b11 4
0,
15
b1 4
#350000
0!
0*
#355000
1!
1*
b1 3
12
1&
b10 4
#360000
0!
0*
#365000
1!
1*
b10 3
16
02
0&
18
b1 ;
#370000
0!
0*
#375000
1!
1*
b1 :
#380000
0!
0*
#385000
1!
1*
b1 <
#390000
0!
0*
#395000
1!
1*
b10 <
#400000
0!
0*
#405000
b1111 #
1!
1,
05
1*
b0 4
b11 <
#410000
0!
0*
#415000
1!
1*
b100 <
b0 3
06
08
b11 4
#420000
0!
0*
#425000
1!
1*
b11 3
b101 <
b0 0
b100 0
b100 $
b110 4
#430000
0!
0*
#435000
1!
1*
b110 <
b110 3
b110 0
b10 0
b10 $
b1001 4
#440000
0!
0*
#445000
1!
1*
b1001 3
b111 <
b11 0
b1 0
b1 $
b0 4
#450000
0!
0*
#455000
1!
1*
b1000 <
b0 3
b1001 0
b1000 0
b1000 $
b11 4
#460000
0!
0*
#465000
1!
1*
b11 3
b1001 <
b0 0
b100 0
b100 $
b110 4
#470000
0!
0*
#475000
1!
1*
b1010 <
b110 3
b110 0
b10 0
b10 $
b1001 4
#480000
0!
0*
#485000
1!
1*
b1001 3
b1011 <
b11 0
b1 0
b1 $
b0 4
#490000
0!
0*
#495000
1!
1*
b1100 <
b0 3
b1001 0
b1000 0
b1000 $
b11 4
#500000
0!
0*
#505000
b111 #
1!
0,
15
1*
b1 4
b11 3
b1101 <
b0 0
b100 0
b100 $
b100 4
#510000
0!
0*
#515000
1!
1*
b1110 <
b100 3
12
1&
b101 4
#520000
0!
0*
#525000
1!
1*
b101 3
b1111 <
16
02
0&
18
#530000
0!
0*
#535000
1!
1*
b10000 <
#540000
0!
0*
#545000
1!
1*
b10001 <
#550000
0!
0*
#555000
1!
1*
b10010 <
#560000
0!
0*
#565000
b1111 #
1!
1,
05
1*
b11 4
b10011 <
#570000
0!
0*
#575000
1!
1*
b10100 <
b11 3
06
08
b110 4
#580000
0!
0*
#585000
1!
1*
b110 3
b10101 <
b110 0
b10 0
b10 $
b1001 4
#590000
0!
0*
#595000
1!
1*
b10110 <
b1001 3
b11 0
b1 0
b1 $
b0 4
#600000
0!
0*
#605000
1!
1*
b0 3
b10111 <
b1001 0
b1000 0
b1000 $
b11 4
#610000
0!
0*
#615000
1!
1*
b11000 <
b11 3
b0 0
b100 0
b100 $
b110 4
#620000
0!
0*
#625000
1!
1*
b110 3
b11001 <
b110 0
b10 0
b10 $
b1001 4
#630000
0!
0*
#635000
1!
1*
b11010 <
b1001 3
b11 0
b1 0
b1 $
b0 4
#640000
0!
0*
#645000
1!
1*
b0 3
b11011 <
b1001 0
b1000 0
b1000 $
b11 4
#650000
0!
0*
#655000
1!
1*
b11100 <
b11 3
b0 0
b100 0
b100 $
b110 4
#660000
0!
0*
#665000
b100 '
b111 #
1!
0,
15
1*
b100 4
b110 3
b11101 <
b110 0
b10 0
b10 $
b111 4
#670000
0!
0*
#675000
1!
1*
b11110 <
b111 3
12
1&
b1000 4
#680000
0!
0*
#685000
1!
1*
b1000 3
b11111 <
16
02
0&
18
#690000
0!
0*
#695000
1!
1*
b100000 <
#700000
0!
0*
#705000
1!
1*
b100001 <
#710000
0!
0*
#715000
1!
1*
b100010 <
#720000
0!
0*
#725000
b1111 #
1!
1,
05
1*
b110 4
b100011 <
#730000
0!
0*
#735000
1!
1*
b100100 <
b110 3
06
08
b1001 4
#740000
0!
0*
#745000
1!
1*
b1001 3
b100101 <
b11 0
b1 0
b1 $
b0 4
#750000
0!
0*
#755000
1!
1*
b100110 <
b0 3
b1001 0
b1000 0
b1000 $
b11 4
#760000
0!
0*
#765000
1!
1*
b11 3
b100111 <
b0 0
b100 0
b100 $
b110 4
#770000
0!
0*
#775000
1!
1*
b101000 <
b110 3
b110 0
b10 0
b10 $
b1001 4
#780000
0!
0*
#785000
1!
1*
b1001 3
b101001 <
b11 0
b1 0
b1 $
b0 4
#790000
0!
0*
#795000
1!
1*
b101010 <
b0 3
b1001 0
b1000 0
b1000 $
b11 4
#800000
0!
0*
#805000
1!
1*
b11 3
b101011 <
b0 0
b100 0
b100 $
b110 4
#810000
0!
0*
#815000
1!
1*
b101100 <
b110 3
b110 0
b10 0
b10 $
b1001 4
#820000
0!
0*
#825000
b1 '
b1110 (
b1110 )
1!
1*
b1001 3
b101101 <
b11 0
b1 0
b1 $
b1110 #
b0 4
0/
15
b1010 4
#830000
0!
0*
#835000
1!
1*
b101110 <
b1010 3
12
1&
b1011 4
#840000
0!
0*
#845000
1!
1*
b1011 3
b101111 <
16
02
0&
18
#850000
0!
0*
#855000
1!
1*
b110000 <
#860000
0!
0*
#865000
1!
1*
b110001 <
#870000
0!
0*
#875000
1!
1*
b110010 <
#880000
0!
0*
#885000
b1111 #
1!
1/
05
1*
b1001 4
b110011 <
#890000
0!
0*
#895000
1!
1*
b110100 <
b1001 3
06
08
b0 4
#900000
0!
0*
#905000
1!
1*
b0 3
b110101 <
b1001 0
b1000 0
b1000 $
b11 4
#910000
0!
0*
#915000
1!
1*
b110110 <
b11 3
b0 0
b100 0
b100 $
b110 4
#920000
0!
0*
#925000
1!
1*
b110 3
b110111 <
b110 0
b10 0
b10 $
b1001 4
#930000
0!
0*
#935000
1!
1*
b111000 <
b1001 3
b11 0
b1 0
b1 $
b0 4
#940000
0!
0*
#945000
1!
1*
b0 3
b111001 <
b1001 0
b1000 0
b1000 $
b11 4
#950000
0!
0*
#955000
1!
1*
b111010 <
b11 3
b0 0
b100 0
b100 $
b110 4
#960000
0!
0*
#965000
1!
1*
b110 3
b111011 <
b110 0
b10 0
b10 $
b1001 4
#970000
0!
0*
#975000
1!
1*
b111100 <
b1001 3
b11 0
b1 0
b1 $
b0 4
#980000
0!
0*
#985000
1!
1*
b0 3
b111101 <
b1001 0
b1000 0
b1000 $
b111 #
b11 4
0,
15
b1 4
#990000
0!
0*
#995000
1!
1*
b111110 <
b1 3
12
1&
b10 4
#1000000
0!
0*
#1005000
1!
1*
b10 3
b111111 <
16
02
0&
18
#1010000
0!
0*
#1015000
1!
1*
b1000000 <
#1020000
0!
0*
#1025000
1!
1*
b1000001 <
#1030000
0!
0*
#1035000
1!
1*
b1000010 <
#1040000
0!
0*
#1045000
b1011 #
1!
0-
1,
1*
b1000011 <
#1050000
0!
0*
#1055000
1!
1*
b1000100 <
#1060000
0!
0*
#1065000
1!
1*
b1000101 <
#1070000
0!
0*
#1075000
1!
1*
b1000110 <
#1080000
0!
0*
#1085000
1!
1*
b1000111 <
#1090000
0!
0*
#1095000
b1111 #
1!
1-
05
1*
b0 4
b1001000 <
#1100000
0!
0*
#1105000
1!
1*
b1001001 <
b0 3
06
08
b11 4
#1110000
0!
0*
#1115000
1!
1*
b11 3
b1001010 <
b0 0
b100 0
b100 $
b110 4
#1120000
0!
0*
#1125000
1!
1*
b1001011 <
b110 3
b110 0
b10 0
b10 $
b1001 4
#1130000
0!
0*
#1135000
1!
1*
b1001 3
b1001100 <
b11 0
b1 0
b1 $
b0 4
#1140000
0!
0*
#1145000
1!
1*
b1001101 <
b0 3
b1001 0
b1000 0
b1000 $
b11 4
#1150000
0!
0*
#1155000
1!
1*
b11 3
b1001110 <
b0 0
b100 0
b100 $
b110 4
#1160000
0!
0*
#1165000
1!
1*
b1001111 <
b110 3
b110 0
b10 0
b10 $
b1001 4
#1170000
0!
0*
#1175000
1!
1*
b1001 3
b1010000 <
b11 0
b1 0
b1 $
b0 4
#1180000
0!
0*
#1185000
1!
1*
b1010001 <
b0 3
b1001 0
b1000 0
b1000 $
b11 4
#1190000
0!
0*
#1195000
b111 #
1!
0,
15
1*
b1 4
b11 3
b1010010 <
b0 0
b100 0
b100 $
b100 4
#1200000
0!
0*
#1205000
1!
1*
b1010011 <
b100 3
12
1&
b101 4
#1210000
0!
0*
#1215000
1!
1*
b101 3
b1010100 <
16
02
0&
18
#1220000
0!
0*
#1225000
1!
1*
b1010101 <
#1230000
0!
0*
#1235000
b1111 #
1!
1,
05
1*
b11 4
b1010110 <
#1240000
0!
0*
#1245000
1!
1*
b1010111 <
b11 3
06
08
b110 4
#1250000
0!
0*
#1255000
b1011 #
1!
0-
15
1*
b100 4
b110 3
b1011000 <
b110 0
b10 0
b10 $
b111 4
#1260000
0!
0*
#1265000
1!
1*
b1011001 <
b111 3
12
1&
b1000 4
#1270000
0!
0*
#1275000
1!
1*
b1000 3
b1011010 <
16
02
0&
18
#1280000
0!
0*
#1285000
1!
1*
b1011011 <
#1290000
0!
0*
#1295000
b1111 #
1!
1-
05
1*
b110 4
b1011100 <
#1300000
0!
0*
#1305000
1!
1*
b1011101 <
b110 3
06
08
b1001 4
#1310000
0!
0*
#1315000
1!
1*
b1001 3
b1011110 <
b11 0
b1 0
b1 $
b0 4
#1320000
0!
0*
#1325000
1!
1*
b1011111 <
b0 3
b1001 0
b1000 0
b1000 $
b111 #
b11 4
0,
15
b1 4
#1330000
0!
0*
#1335000
1!
1*
b1 3
b1100000 <
12
1&
b10 4
#1340000
0!
0*
#1345000
1!
1*
b1100001 <
b10 3
16
02
0&
18
#1350000
0!
0*
#1355000
1!
1*
b1100010 <
#1360000
0!
0*
#1365000
b1111 #
1!
1,
05
1*
b0 4
b1100011 <
#1370000
0!
0*
#1375000
1!
1*
b1100100 <
b0 3
06
08
b11 4
#1380000
0!
0*
#1385000
1!
1*
b11 3
b1100101 <
b0 0
b100 0
b100 $
b1011 #
b110 4
0-
15
b100 4
#1390000
0!
0*
#1395000
1!
1*
b1100110 <
b100 3
12
1&
b101 4
#1400000
0!
0*
#1405000
1!
1*
b101 3
b1100111 <
16
02
0&
18
#1410000
0!
0*
#1415000
1!
1*
b1101000 <
#1420000
0!
0*
#1425000
b1111 #
1!
1-
05
1*
b11 4
b1101001 <
#1430000
0!
0*
#1435000
1!
1*
b1101010 <
b11 3
06
08
b110 4
#1440000
0!
0*
#1445000
1!
1*
b110 3
b1101011 <
b110 0
b10 0
b10 $
b1001 4
#1450000
0!
0*
#1455000
1!
1*
b1101100 <
b1001 3
b11 0
b1 0
b1 $
b0 4
#1460000
0!
0*
#1465000
1!
1*
b0 3
b1101101 <
b1001 0
b1000 0
b1000 $
b111 #
b11 4
0,
15
b1 4
#1470000
0!
0*
#1475000
1!
1*
b1101110 <
b1 3
12
1&
b10 4
#1480000
0!
0*
#1485000
1!
1*
b10 3
b1101111 <
16
02
0&
18
#1490000
0!
0*
#1495000
1!
1*
b1110000 <
#1500000
0!
0*
#1505000
b1111 #
1!
1,
05
1*
b0 4
b1110001 <
#1510000
0!
0*
#1515000
1!
1*
b1110010 <
b0 3
06
08
b11 4
#1520000
0!
0*
#1525000
1!
1*
b11 3
b1110011 <
b0 0
b100 0
b100 $
b1011 #
b110 4
0-
15
b100 4
#1530000
0!
0*
#1535000
1!
1*
b1110100 <
b100 3
12
1&
b101 4
#1540000
0!
0*
#1545000
1!
1*
b101 3
b1110101 <
16
02
0&
18
#1550000
0!
0*
#1555000
1!
1*
b1110110 <
#1560000
0!
0*
#1565000
b1111 #
1!
1-
05
1*
b11 4
b1110111 <
#1570000
0!
0*
#1575000
1!
1*
b1111000 <
b11 3
06
08
b110 4
#1580000
0!
0*
#1585000
1!
1*
b110 3
b1111001 <
b110 0
b10 0
b10 $
b1001 4
#1590000
0!
0*
#1595000
1!
1*
b1111010 <
b1001 3
b11 0
b1 0
b1 $
b0 4
#1600000
0!
0*
#1605000
1!
1*
b0 3
b1111011 <
b1001 0
b1000 0
b1000 $
b11 4
#1610000
0!
0*
#1615000
1!
1*
b1111100 <
b11 3
b0 0
b100 0
b100 $
b110 4
#1620000
0!
0*
#1625000
1!
1*
b110 3
b1111101 <
b110 0
b10 0
b10 $
b1001 4
#1630000
0!
0*
#1635000
1!
1*
b1111110 <
b1001 3
b11 0
b1 0
b1 $
b0 4
#1640000
0!
0*
#1645000
1!
1*
b0 3
b1111111 <
b1001 0
b1000 0
b1000 $
b11 4
#1650000
0!
0*
#1655000
1!
1*
b10000000 <
b11 3
b0 0
b100 0
b100 $
b110 4
#1660000
0!
0*
#1665000
1!
1*
b110 3
b10000001 <
b110 0
b10 0
b10 $
b1001 4
#1670000
0!
0*
#1675000
1!
1*
b10000010 <
b1001 3
b11 0
b1 0
b1 $
b0 4
#1680000
0!
0*
#1685000
1!
1*
b0 3
b10000011 <
b1001 0
b1000 0
b1000 $
b11 4
#1690000
0!
0*
#1695000
1!
1*
b10000100 <
b11 3
b0 0
b100 0
b100 $
b110 4
#1700000
0!
0*
#1705000
1!
1*
b110 3
b10000101 <
b110 0
b10 0
b10 $
b1001 4
#1710000
0!
0*
#1715000
1!
1*
b10000110 <
b1001 3
b11 0
b1 0
b1 $
b0 4
#1720000
0!
0*
#1725000
1!
1*
b0 3
b10000111 <
b1001 0
b1000 0
b1000 $
b11 4
#1730000
0!
0*
#1735000
1!
1*
b10001000 <
b11 3
b0 0
b100 0
b100 $
b110 4
#1740000
0!
0*
#1745000
1!
1*
b110 3
b10001001 <
b110 0
b10 0
b10 $
b1001 4
#1750000
0!
0*
#1755000
1!
1*
b10001010 <
b1001 3
b11 0
b1 0
b1 $
b0 4
#1760000
0!
0*
#1765000
1!
1*
b0 3
b10001011 <
b1001 0
b1000 0
b1000 $
b11 4
#1770000
0!
0*
#1775000
1!
1*
b10001100 <
b11 3
b0 0
b100 0
b100 $
b110 4
#1780000
0!
0*
#1785000
1!
1*
b110 3
b10001101 <
b110 0
b10 0
b10 $
b1001 4
#1790000
0!
0*
#1795000
1!
1*
b10001110 <
b1001 3
b11 0
b1 0
b1 $
b0 4
#1800000
0!
0*
#1805000
1!
1*
b0 3
b10001111 <
b1001 0
b1000 0
b1000 $
b11 4
#1810000
0!
0*
#1815000
1!
1*
b10010000 <
b11 3
b0 0
b100 0
b100 $
b110 4
#1820000
0!
0*
#1825000
1!
1*
b110 3
b10010001 <
b110 0
b10 0
b10 $
b1001 4
#1830000
0!
0*
#1835000
1!
1*
b10010010 <
b1001 3
b11 0
b1 0
b1 $
b0 4
#1840000
0!
0*
#1845000
1!
1*
b0 3
b10010011 <
b1001 0
b1000 0
b1000 $
b11 4
#1850000
0!
0*
#1855000
1!
1*
b10010100 <
b11 3
b0 0
b100 0
b100 $
b110 4
#1860000
0!
0*
#1865000
1!
1*
b110 3
b10010101 <
b110 0
b10 0
b10 $
b1001 4
#1870000
0!
0*
#1875000
1!
1*
b10010110 <
b1001 3
b11 0
b1 0
b1 $
b0 4
